00RCBCPO80A01E202LARCOBALENO      COOP            1         0017-0001 657             
01RCBCPO80A01E202L2019083136.00
00RCBCPO80A01E202LARCOBALENO      COOP            1         0017-0003 657             
01RCBCPO80A01E202L2019083186.00
00RCBCPO80A01E202LARCOBALENO      COOP            1         0017-0041 657             
01RCBCPO80A01E202L2019083134.00
00RCBCPO80A01E202LARCOBALENO      COOP            1         0017-0043 657             
01RCBCPO80A01E202L2019083142.50
00RCBCPO80A01E202LARCOBALENO      COOP            1         0016-0002 657             
01RCBCPO80A01E202L2019083117.00
00RCBCPO80A01E202LARCOBALENO      COOP            1         0016-0003 657             
01RCBCPO80A01E202L2019083150.00
00RCBCPO80A01E202LARCOBALENO      COOP            1         0016-0039 657             
01RCBCPO80A01E202L201908314.00
00RCBCPO80A01E202LARCOBALENO      COOP            1         0016-0043 657             
01RCBCPO80A01E202L2019083120.00
00RCBCPO80A01E202LARCOBALENO      COOP            1         0024-0039 657             
01RCBCPO80A01E202L2019083110.00
00RCBCPO80A01E202LARCOBALENO      COOP            1         0255-0001 657             
01RCBCPO80A01E202L2019083116.00
00RCBCPO80A01E202LARCOBALENO      COOP            1         0255-0008 657             
01RCBCPO80A01E202L2019083113.50
00RCBCPO80A01E202LARCOBALENO      COOP            1         0017-0001 719             
01RCBCPO80A01E202L2019083177.50
00RCBCPO80A01E202LARCOBALENO      COOP            1         0017-0003 719             
01RCBCPO80A01E202L2019083137.00
00RCBCPO80A01E202LARCOBALENO      COOP            1         0017-0039 719             
01RCBCPO80A01E202L2019083147.00
00RCBCPO80A01E202LARCOBALENO      COOP            1         0017-0043 719             
01RCBCPO80A01E202L2019083121.50
00RCBCPO80A01E202LARCOBALENO      COOP            1         0016-0003 719             
01RCBCPO80A01E202L2019083127.00
00RCBCPO80A01E202LARCOBALENO      COOP            1         0018-0008 719             
01RCBCPO80A01E202L201908317.00
00RCBCPO80A01E202LARCOBALENO      COOP            1         0024-0001 719             
01RCBCPO80A01E202L2019083120.00
00RCBCPO80A01E202LARCOBALENO      COOP            1         0255-0001 719             
01RCBCPO80A01E202L201908319.00
00RCBCPO80A01E202LARCOBALENO      COOP            1         0255-0008 719             
01RCBCPO80A01E202L2019083111.00
00RCBCPO80A01E202LARCOBALENO      COOP            1         0017-0001 815             
01RCBCPO80A01E202L2019083119.00
00RCBCPO80A01E202LARCOBALENO      COOP            1         0017-0003 815             
01RCBCPO80A01E202L2019083130.00
00RCBCPO80A01E202LARCOBALENO      COOP            1         0017-0039 815             
01RCBCPO80A01E202L2019083147.50
00RCBCPO80A01E202LARCOBALENO      COOP            1         0017-0040 815             
01RCBCPO80A01E202L201908318.00
00RCBCPO80A01E202LARCOBALENO      COOP            1         0017-0041 815             
01RCBCPO80A01E202L2019083144.25
00RCBCPO80A01E202LARCOBALENO      COOP            1         0017-0043 815             
01RCBCPO80A01E202L201908314.00
00RCBCPO80A01E202LARCOBALENO      COOP            1         0016-0001 815             
01RCBCPO80A01E202L2019083195.50
00RCBCPO80A01E202LARCOBALENO      COOP            1         0016-0041 815             
01RCBCPO80A01E202L2019083121.00
00RCBCPO80A01E202LARCOBALENO      COOP            1         0024-0001 815             
01RCBCPO80A01E202L2019083112.00
00RCBCPO80A01E202LARCOBALENO      COOP            1         0024-0039 815             
01RCBCPO80A01E202L2019083116.00
00RCBCPO80A01E202LARCOBALENO      COOP            1         0024-0041 815             
01RCBCPO80A01E202L2019083116.00
00RCBCPO80A01E202LARCOBALENO      COOP            1         0017-0001 816             
01RCBCPO80A01E202L2019083131.00
00RCBCPO80A01E202LARCOBALENO      COOP            1         0017-0003 816             
01RCBCPO80A01E202L2019083151.00
00RCBCPO80A01E202LARCOBALENO      COOP            1         0017-0039 816             
01RCBCPO80A01E202L2019083132.50
00RCBCPO80A01E202LARCOBALENO      COOP            1         0017-0041 816             
01RCBCPO80A01E202L2019083126.50
00RCBCPO80A01E202LARCOBALENO      COOP            1         0017-0042 816             
01RCBCPO80A01E202L201908319.00
00RCBCPO80A01E202LARCOBALENO      COOP            1         0017-0043 816             
01RCBCPO80A01E202L2019083112.00
00RCBCPO80A01E202LARCOBALENO      COOP            1         0016-0001 816             
01RCBCPO80A01E202L2019083152.00
00RCBCPO80A01E202LARCOBALENO      COOP            1         0016-0003 816             
01RCBCPO80A01E202L2019083116.00
00RCBCPO80A01E202LARCOBALENO      COOP            1         0016-0039 816             
01RCBCPO80A01E202L2019083117.00
00RCBCPO80A01E202LARCOBALENO      COOP            1         0016-0040 816             
01RCBCPO80A01E202L2019083125.50
00RCBCPO80A01E202LARCOBALENO      COOP            1         0016-0041 816             
01RCBCPO80A01E202L201908314.00
00RCBCPO80A01E202LARCOBALENO      COOP            1         0016-0043 816             
01RCBCPO80A01E202L2019083125.00
00RCBCPO80A01E202LARCOBALENO      COOP            1         0024-0001 816             
01RCBCPO80A01E202L2019083118.50
00RCBCPO80A01E202LARCOBALENO      COOP            1         0024-0040 816             
01RCBCPO80A01E202L201908311.00
00RCBCPO80A01E202LARCOBALENO      COOP            1         0024-0043 816             
01RCBCPO80A01E202L2019083111.00
00RCBCPO80A01E202LARCOBALENO      COOP            1         0017-0001 817             
01RCBCPO80A01E202L2019083113.00
00RCBCPO80A01E202LARCOBALENO      COOP            1         0017-0003 817             
01RCBCPO80A01E202L2019083163.50
00RCBCPO80A01E202LARCOBALENO      COOP            1         0017-0039 817             
01RCBCPO80A01E202L2019083170.00
00RCBCPO80A01E202LARCOBALENO      COOP            1         0017-0040 817             
01RCBCPO80A01E202L2019083113.00
00RCBCPO80A01E202LARCOBALENO      COOP            1         0017-0041 817             
01RCBCPO80A01E202L201908316.00
00RCBCPO80A01E202LARCOBALENO      COOP            1         0017-0043 817             
01RCBCPO80A01E202L2019083115.00
00RCBCPO80A01E202LARCOBALENO      COOP            1         0016-0001 817             
01RCBCPO80A01E202L2019083125.00
00RCBCPO80A01E202LARCOBALENO      COOP            1         0016-0003 817             
01RCBCPO80A01E202L201908319.00
00RCBCPO80A01E202LARCOBALENO      COOP            1         0016-0039 817             
01RCBCPO80A01E202L201908318.00
00RCBCPO80A01E202LARCOBALENO      COOP            1         0024-0001 817             
01RCBCPO80A01E202L201908318.00
00RCBCPO80A01E202LARCOBALENO      COOP            1         0017-0001 818             
01RCBCPO80A01E202L2019083114.00
00RCBCPO80A01E202LARCOBALENO      COOP            1         0017-0003 818             
01RCBCPO80A01E202L2019083137.50
00RCBCPO80A01E202LARCOBALENO      COOP            1         0017-0039 818             
01RCBCPO80A01E202L2019083112.00
00RCBCPO80A01E202LARCOBALENO      COOP            1         0017-0040 818             
01RCBCPO80A01E202L2019083112.00
00RCBCPO80A01E202LARCOBALENO      COOP            1         0016-0003 818             
01RCBCPO80A01E202L2019083112.00
00RCBCPO80A01E202LARCOBALENO      COOP            1         0016-0041 818             
01RCBCPO80A01E202L201908316.00
00RCBCPO80A01E202LARCOBALENO      COOP            1         0024-0001 818             
01RCBCPO80A01E202L2019083150.00
00RCBCPO80A01E202LARCOBALENO      COOP            1         0017-0003 819             
01RCBCPO80A01E202L2019083126.00
00RCBCPO80A01E202LARCOBALENO      COOP            1         0017-0041 819             
01RCBCPO80A01E202L201908318.00
00RCBCPO80A01E202LARCOBALENO      COOP            1         0017-0043 819             
01RCBCPO80A01E202L2019083119.00
00RCBCPO80A01E202LARCOBALENO      COOP            1         0016-0001 819             
01RCBCPO80A01E202L2019083113.00
00RCBCPO80A01E202LARCOBALENO      COOP            1         0016-0003 819             
01RCBCPO80A01E202L201908319.00
00RCBCPO80A01E202LARCOBALENO      COOP            1         0018-0001 819             
01RCBCPO80A01E202L2019083122.50
00RCBCPO80A01E202LARCOBALENO      COOP            1         0018-0008 819             
01RCBCPO80A01E202L2019083187.00
00RCBCPO80A01E202LARCOBALENO      COOP            1         0017-0003 824             
01RCBCPO80A01E202L20190831112.00
00RCBCPO80A01E202LARCOBALENO      COOP            1         0017-0043 824             
01RCBCPO80A01E202L201908318.00
00RCBCPO80A01E202LARCOBALENO      COOP            1         0016-0003 824             
01RCBCPO80A01E202L2019083121.00
00RCBCPO80A01E202LARCOBALENO      COOP            1         0018-0008 824             
01RCBCPO80A01E202L2019083162.00
00RCBCPO80A01E202LARCOBALENO      COOP            1         0018-0001 1323            
01RCBCPO80A01E202L20190831191.83
00RCBCPO80A01E202LARCOBALENO      COOP            1         0018-0008 1323            
01RCBCPO80A01E202L20190831410.83
00RCBCPO80A01E202LARCOBALENO      COOP            1         0255-0008 1323            
01RCBCPO80A01E202L201908317.00
00RCBCPO80A01E202LARCOBALENO      COOP            1         0018-0008 1458            
01RCBCPO80A01E202L2019083154.50
00RCBCPO80A01E202LARCOBALENO      COOP            1         0017-0001 1495            
01RCBCPO80A01E202L201908318.00
00RCBCPO80A01E202LARCOBALENO      COOP            1         0017-0003 1495            
01RCBCPO80A01E202L201908318.00
00RCBCPO80A01E202LARCOBALENO      COOP            1         0017-0041 1495            
01RCBCPO80A01E202L2019083121.50
00RCBCPO80A01E202LARCOBALENO      COOP            1         0016-0003 1495            
01RCBCPO80A01E202L2019083121.50
00RCBCPO80A01E202LARCOBALENO      COOP            1         0019-0001 6757            
01RCBCPO80A01E202L201908316.67
00RCBCPO80A01E202LARCOBALENO      COOP            1         0085-0001 6757            
01RCBCPO80A01E202L2019083111.00
00RCBCPO80A01E202LARCOBALENO      COOP            1         0085-0008 6757            
01RCBCPO80A01E202L201908316.50
00RCBCPO80A01E202LARCOBALENO      COOP            1         0016-0001 7067            
01RCBCPO80A01E202L2019083114.00
00RCBCPO80A01E202LARCOBALENO      COOP            1         0024-0001 7067            
01RCBCPO80A01E202L2019083124.00
00RCBCPO80A01E202LARCOBALENO      COOP            1         0024-0001 9758            
01RCBCPO80A01E202L2019083118.00
